<?xml version="1.0" encoding="UTF-8"?>
<testng-results ignored="0" total="9" passed="9" failed="0" skipped="0">
  <reporter-output>
    <line>
      <![CDATA[GetUnknownList code: 200]]>
    </line>
    <line>
      <![CDATA[GetUnknownList response body: {
    "page": 1,
    "per_page": 6,
    "total": 12,
    "total_pages": 2,
    "data": [
        {
            "id": 1,
            "name": "cerulean",
            "year": 2000,
            "color": "#98B2D1",
            "pantone_value": "15-4020"
        },
        {
            "id": 2,
            "name": "fuchsia rose",
            "year": 2001,
            "color": "#C74375",
            "pantone_value": "17-2031"
        },
        {
            "id": 3,
            "name": "true red",
            "year": 2002,
            "color": "#BF1932",
            "pantone_value": "19-1664"
        },
        {
            "id": 4,
            "name": "aqua sky",
            "year": 2003,
            "color": "#7BC4C4",
            "pantone_value": "14-4811"
        },
        {
            "id": 5,
            "name": "tigerlily",
            "year": 2004,
            "color": "#E2583E",
            "pantone_value": "17-1456"
        },
        {
            "id": 6,
            "name": "blue turquoise",
            "year": 2005,
            "color": "#53B0AE",
            "pantone_value": "15-5217"
        }
    ],
    "support": {
        "url": "https://reqres.in/#support-heading",
        "text": "To keep ReqRes free, contributions towards server costs are appreciated!"
    }
}]]>
    </line>
    <line>
      <![CDATA[GetUnknown status code: 404]]>
    </line>
    <line>
      <![CDATA[GetUnknown response body: {
    
}]]>
    </line>
    <line>
      <![CDATA[GetUser with id=2 status code: 200]]>
    </line>
    <line>
      <![CDATA[GetUser with id=2 response body: {
    "data": {
        "id": 2,
        "email": "janet.weaver@reqres.in",
        "first_name": "Janet",
        "last_name": "Weaver",
        "avatar": "https://reqres.in/img/faces/2-image.jpg"
    },
    "support": {
        "url": "https://reqres.in/#support-heading",
        "text": "To keep ReqRes free, contributions towards server costs are appreciated!"
    }
}]]>
    </line>
    <line>
      <![CDATA[GetUsers status code: 200]]>
    </line>
    <line>
      <![CDATA[GetUsers response body: {
    "page": 1,
    "per_page": 6,
    "total": 12,
    "total_pages": 2,
    "data": [
        {
            "id": 1,
            "email": "george.bluth@reqres.in",
            "first_name": "George",
            "last_name": "Bluth",
            "avatar": "https://reqres.in/img/faces/1-image.jpg"
        },
        {
            "id": 2,
            "email": "janet.weaver@reqres.in",
            "first_name": "Janet",
            "last_name": "Weaver",
            "avatar": "https://reqres.in/img/faces/2-image.jpg"
        },
        {
            "id": 3,
            "email": "emma.wong@reqres.in",
            "first_name": "Emma",
            "last_name": "Wong",
            "avatar": "https://reqres.in/img/faces/3-image.jpg"
        },
        {
            "id": 4,
            "email": "eve.holt@reqres.in",
            "first_name": "Eve",
            "last_name": "Holt",
            "avatar": "https://reqres.in/img/faces/4-image.jpg"
        },
        {
            "id": 5,
            "email": "charles.morris@reqres.in",
            "first_name": "Charles",
            "last_name": "Morris",
            "avatar": "https://reqres.in/img/faces/5-image.jpg"
        },
        {
            "id": 6,
            "email": "tracey.ramos@reqres.in",
            "first_name": "Tracey",
            "last_name": "Ramos",
            "avatar": "https://reqres.in/img/faces/6-image.jpg"
        }
    ],
    "support": {
        "url": "https://reqres.in/#support-heading",
        "text": "To keep ReqRes free, contributions towards server costs are appreciated!"
    }
}]]>
    </line>
    <line>
      <![CDATA[PostCreateUsers status code: 201]]>
    </line>
    <line>
      <![CDATA[PostCreateUsers response body: {
    "name": "Esteban Alexis",
    "job": "Junior QA Professional",
    "id": "250",
    "createdAt": "2023-02-15T19:21:26.269Z"
}]]>
    </line>
    <line>
      <![CDATA[PostLogin status code: 201]]>
    </line>
    <line>
      <![CDATA[PostLogin response body: {
    "skills": [
        "java",
        "python",
        "node",
        "kotlin"
    ],
    "name": "mkyong",
    "position": [
        "Founder",
        "CTO",
        "Writer"
    ],
    "salary": {
        "2010": 10000,
        "2012": 12000,
        "2018": 14000
    },
    "age": 38,
    "id": "710",
    "createdAt": "2023-02-15T19:21:26.737Z"
}]]>
    </line>
    <line>
      <![CDATA[GetUser with id=2 status code: 200]]>
    </line>
    <line>
      <![CDATA[GetUser with id=2 response body: {
    "name": "Esteban Alexis",
    "job": "Junior QA Professional",
    "updatedAt": "2023-02-15T19:21:27.159Z"
}]]>
    </line>
    <line>
      <![CDATA[PostRegister status code: 200]]>
    </line>
    <line>
      <![CDATA[PostRegister response body: {
    "id": 4,
    "token": "QpwL5tke4Pnpja7X4"
}]]>
    </line>
    <line>
      <![CDATA[PostRegister status code: 400]]>
    </line>
    <line>
      <![CDATA[PostRegister response body: {
    "error": "Missing email or username"
}]]>
    </line>
  </reporter-output>
  <suite started-at="2023-02-15T13:21:09 CST" name="Suite" finished-at="2023-02-15T13:21:15 CST" duration-ms="5389">
    <groups>
    </groups>
    <test started-at="2023-02-15T13:21:09 CST" name="Test" finished-at="2023-02-15T13:21:15 CST" duration-ms="5389">
      <class name="testng.Assignment4">
        <test-method is-config="true" signature="setup()[pri:0, instance:testng.Assignment4@4f2b503c]" started-at="2023-02-15T13:21:09 CST" name="setup" finished-at="2023-02-15T13:21:09 CST" duration-ms="22" status="PASS">
          <reporter-output>
          </reporter-output>
        </test-method> <!-- setup -->
        <test-method signature="validateGetUnknownList()[pri:0, instance:testng.Assignment4@4f2b503c]" started-at="2023-02-15T13:21:09 CST" name="validateGetUnknownList" finished-at="2023-02-15T13:21:12 CST" duration-ms="2232" status="PASS">
          <reporter-output>
            <line>
              <![CDATA[GetUnknownList code: 200]]>
            </line>
            <line>
              <![CDATA[GetUnknownList response body: {
    "page": 1,
    "per_page": 6,
    "total": 12,
    "total_pages": 2,
    "data": [
        {
            "id": 1,
            "name": "cerulean",
            "year": 2000,
            "color": "#98B2D1",
            "pantone_value": "15-4020"
        },
        {
            "id": 2,
            "name": "fuchsia rose",
            "year": 2001,
            "color": "#C74375",
            "pantone_value": "17-2031"
        },
        {
            "id": 3,
            "name": "true red",
            "year": 2002,
            "color": "#BF1932",
            "pantone_value": "19-1664"
        },
        {
            "id": 4,
            "name": "aqua sky",
            "year": 2003,
            "color": "#7BC4C4",
            "pantone_value": "14-4811"
        },
        {
            "id": 5,
            "name": "tigerlily",
            "year": 2004,
            "color": "#E2583E",
            "pantone_value": "17-1456"
        },
        {
            "id": 6,
            "name": "blue turquoise",
            "year": 2005,
            "color": "#53B0AE",
            "pantone_value": "15-5217"
        }
    ],
    "support": {
        "url": "https://reqres.in/#support-heading",
        "text": "To keep ReqRes free, contributions towards server costs are appreciated!"
    }
}]]>
            </line>
          </reporter-output>
        </test-method> <!-- validateGetUnknownList -->
        <test-method signature="validateGetUnknownUser()[pri:0, instance:testng.Assignment4@4f2b503c]" started-at="2023-02-15T13:21:12 CST" name="validateGetUnknownUser" finished-at="2023-02-15T13:21:12 CST" duration-ms="483" status="PASS">
          <reporter-output>
            <line>
              <![CDATA[GetUnknown status code: 404]]>
            </line>
            <line>
              <![CDATA[GetUnknown response body: {
    
}]]>
            </line>
          </reporter-output>
        </test-method> <!-- validateGetUnknownUser -->
        <test-method signature="validateGetUser()[pri:0, instance:testng.Assignment4@4f2b503c]" started-at="2023-02-15T13:21:12 CST" name="validateGetUser" finished-at="2023-02-15T13:21:12 CST" duration-ms="179" status="PASS">
          <reporter-output>
            <line>
              <![CDATA[GetUser with id=2 status code: 200]]>
            </line>
            <line>
              <![CDATA[GetUser with id=2 response body: {
    "data": {
        "id": 2,
        "email": "janet.weaver@reqres.in",
        "first_name": "Janet",
        "last_name": "Weaver",
        "avatar": "https://reqres.in/img/faces/2-image.jpg"
    },
    "support": {
        "url": "https://reqres.in/#support-heading",
        "text": "To keep ReqRes free, contributions towards server costs are appreciated!"
    }
}]]>
            </line>
          </reporter-output>
        </test-method> <!-- validateGetUser -->
        <test-method signature="validateGetUsers()[pri:0, instance:testng.Assignment4@4f2b503c]" started-at="2023-02-15T13:21:12 CST" name="validateGetUsers" finished-at="2023-02-15T13:21:12 CST" duration-ms="159" status="PASS">
          <reporter-output>
            <line>
              <![CDATA[GetUsers status code: 200]]>
            </line>
            <line>
              <![CDATA[GetUsers response body: {
    "page": 1,
    "per_page": 6,
    "total": 12,
    "total_pages": 2,
    "data": [
        {
            "id": 1,
            "email": "george.bluth@reqres.in",
            "first_name": "George",
            "last_name": "Bluth",
            "avatar": "https://reqres.in/img/faces/1-image.jpg"
        },
        {
            "id": 2,
            "email": "janet.weaver@reqres.in",
            "first_name": "Janet",
            "last_name": "Weaver",
            "avatar": "https://reqres.in/img/faces/2-image.jpg"
        },
        {
            "id": 3,
            "email": "emma.wong@reqres.in",
            "first_name": "Emma",
            "last_name": "Wong",
            "avatar": "https://reqres.in/img/faces/3-image.jpg"
        },
        {
            "id": 4,
            "email": "eve.holt@reqres.in",
            "first_name": "Eve",
            "last_name": "Holt",
            "avatar": "https://reqres.in/img/faces/4-image.jpg"
        },
        {
            "id": 5,
            "email": "charles.morris@reqres.in",
            "first_name": "Charles",
            "last_name": "Morris",
            "avatar": "https://reqres.in/img/faces/5-image.jpg"
        },
        {
            "id": 6,
            "email": "tracey.ramos@reqres.in",
            "first_name": "Tracey",
            "last_name": "Ramos",
            "avatar": "https://reqres.in/img/faces/6-image.jpg"
        }
    ],
    "support": {
        "url": "https://reqres.in/#support-heading",
        "text": "To keep ReqRes free, contributions towards server costs are appreciated!"
    }
}]]>
            </line>
          </reporter-output>
        </test-method> <!-- validateGetUsers -->
        <test-method signature="validatePostCreateUser()[pri:0, instance:testng.Assignment4@4f2b503c]" started-at="2023-02-15T13:21:12 CST" name="validatePostCreateUser" finished-at="2023-02-15T13:21:13 CST" duration-ms="430" status="PASS">
          <reporter-output>
            <line>
              <![CDATA[PostCreateUsers status code: 201]]>
            </line>
            <line>
              <![CDATA[PostCreateUsers response body: {
    "name": "Esteban Alexis",
    "job": "Junior QA Professional",
    "id": "250",
    "createdAt": "2023-02-15T19:21:26.269Z"
}]]>
            </line>
          </reporter-output>
        </test-method> <!-- validatePostCreateUser -->
        <test-method signature="validatePostLogin()[pri:0, instance:testng.Assignment4@4f2b503c]" started-at="2023-02-15T13:21:13 CST" name="validatePostLogin" finished-at="2023-02-15T13:21:13 CST" duration-ms="462" status="PASS">
          <reporter-output>
            <line>
              <![CDATA[PostLogin status code: 201]]>
            </line>
            <line>
              <![CDATA[PostLogin response body: {
    "skills": [
        "java",
        "python",
        "node",
        "kotlin"
    ],
    "name": "mkyong",
    "position": [
        "Founder",
        "CTO",
        "Writer"
    ],
    "salary": {
        "2010": 10000,
        "2012": 12000,
        "2018": 14000
    },
    "age": 38,
    "id": "710",
    "createdAt": "2023-02-15T19:21:26.737Z"
}]]>
            </line>
          </reporter-output>
        </test-method> <!-- validatePostLogin -->
        <test-method signature="validatePutUser()[pri:0, instance:testng.Assignment4@4f2b503c]" started-at="2023-02-15T13:21:13 CST" name="validatePutUser" finished-at="2023-02-15T13:21:14 CST" duration-ms="420" status="PASS">
          <reporter-output>
            <line>
              <![CDATA[GetUser with id=2 status code: 200]]>
            </line>
            <line>
              <![CDATA[GetUser with id=2 response body: {
    "name": "Esteban Alexis",
    "job": "Junior QA Professional",
    "updatedAt": "2023-02-15T19:21:27.159Z"
}]]>
            </line>
          </reporter-output>
        </test-method> <!-- validatePutUser -->
        <test-method signature="validateSuccessfullPostRegister()[pri:0, instance:testng.Assignment4@4f2b503c]" started-at="2023-02-15T13:21:14 CST" name="validateSuccessfullPostRegister" finished-at="2023-02-15T13:21:14 CST" duration-ms="472" status="PASS">
          <reporter-output>
            <line>
              <![CDATA[PostRegister status code: 200]]>
            </line>
            <line>
              <![CDATA[PostRegister response body: {
    "id": 4,
    "token": "QpwL5tke4Pnpja7X4"
}]]>
            </line>
          </reporter-output>
        </test-method> <!-- validateSuccessfullPostRegister -->
        <test-method signature="validateUnsuccessfullPostRegister()[pri:0, instance:testng.Assignment4@4f2b503c]" started-at="2023-02-15T13:21:14 CST" name="validateUnsuccessfullPostRegister" finished-at="2023-02-15T13:21:15 CST" duration-ms="468" status="PASS">
          <reporter-output>
            <line>
              <![CDATA[PostRegister status code: 400]]>
            </line>
            <line>
              <![CDATA[PostRegister response body: {
    "error": "Missing email or username"
}]]>
            </line>
          </reporter-output>
        </test-method> <!-- validateUnsuccessfullPostRegister -->
      </class> <!-- testng.Assignment4 -->
    </test> <!-- Test -->
  </suite> <!-- Suite -->
</testng-results>
