<?xml version="1.0" encoding="UTF-8"?>
<!-- Generated by org.testng.reporters.JUnitReportReporter -->
<testsuite hostname="REM-LT-230130C" failures="0" tests="9" name="testng.Assignment4" time="5.305" errors="0" timestamp="2023-02-15T13:21:15 CST" skipped="0">
  <testcase classname="testng.Assignment4" name="validateSuccessfullPostRegister" time="0.472"/>
  <system-out>
    <![CDATA[PostRegister status code: 200
PostRegister response body: {
    "id": 4,
    "token": "QpwL5tke4Pnpja7X4"
}]]>
  </system-out>
  <testcase classname="testng.Assignment4" name="validateGetUnknownList" time="2.232"/>
  <system-out>
    <![CDATA[GetUnknownList code: 200
GetUnknownList response body: {
    "page": 1,
    "per_page": 6,
    "total": 12,
    "total_pages": 2,
    "data": [
        {
            "id": 1,
            "name": "cerulean",
            "year": 2000,
            "color": "#98B2D1",
            "pantone_value": "15-4020"
        },
        {
            "id": 2,
            "name": "fuchsia rose",
            "year": 2001,
            "color": "#C74375",
            "pantone_value": "17-2031"
        },
        {
            "id": 3,
            "name": "true red",
            "year": 2002,
            "color": "#BF1932",
            "pantone_value": "19-1664"
        },
        {
            "id": 4,
            "name": "aqua sky",
            "year": 2003,
            "color": "#7BC4C4",
            "pantone_value": "14-4811"
        },
        {
            "id": 5,
            "name": "tigerlily",
            "year": 2004,
            "color": "#E2583E",
            "pantone_value": "17-1456"
        },
        {
            "id": 6,
            "name": "blue turquoise",
            "year": 2005,
            "color": "#53B0AE",
            "pantone_value": "15-5217"
        }
    ],
    "support": {
        "url": "https://reqres.in/#support-heading",
        "text": "To keep ReqRes free, contributions towards server costs are appreciated!"
    }
}]]>
  </system-out>
  <testcase classname="testng.Assignment4" name="validatePostLogin" time="0.462"/>
  <system-out>
    <![CDATA[PostLogin status code: 201
PostLogin response body: {
    "skills": [
        "java",
        "python",
        "node",
        "kotlin"
    ],
    "name": "mkyong",
    "position": [
        "Founder",
        "CTO",
        "Writer"
    ],
    "salary": {
        "2010": 10000,
        "2012": 12000,
        "2018": 14000
    },
    "age": 38,
    "id": "710",
    "createdAt": "2023-02-15T19:21:26.737Z"
}]]>
  </system-out>
  <testcase classname="testng.Assignment4" name="validateGetUser" time="0.179"/>
  <system-out>
    <![CDATA[GetUser with id=2 status code: 200
GetUser with id=2 response body: {
    "data": {
        "id": 2,
        "email": "janet.weaver@reqres.in",
        "first_name": "Janet",
        "last_name": "Weaver",
        "avatar": "https://reqres.in/img/faces/2-image.jpg"
    },
    "support": {
        "url": "https://reqres.in/#support-heading",
        "text": "To keep ReqRes free, contributions towards server costs are appreciated!"
    }
}]]>
  </system-out>
  <testcase classname="testng.Assignment4" name="validateGetUsers" time="0.159"/>
  <system-out>
    <![CDATA[GetUsers status code: 200
GetUsers response body: {
    "page": 1,
    "per_page": 6,
    "total": 12,
    "total_pages": 2,
    "data": [
        {
            "id": 1,
            "email": "george.bluth@reqres.in",
            "first_name": "George",
            "last_name": "Bluth",
            "avatar": "https://reqres.in/img/faces/1-image.jpg"
        },
        {
            "id": 2,
            "email": "janet.weaver@reqres.in",
            "first_name": "Janet",
            "last_name": "Weaver",
            "avatar": "https://reqres.in/img/faces/2-image.jpg"
        },
        {
            "id": 3,
            "email": "emma.wong@reqres.in",
            "first_name": "Emma",
            "last_name": "Wong",
            "avatar": "https://reqres.in/img/faces/3-image.jpg"
        },
        {
            "id": 4,
            "email": "eve.holt@reqres.in",
            "first_name": "Eve",
            "last_name": "Holt",
            "avatar": "https://reqres.in/img/faces/4-image.jpg"
        },
        {
            "id": 5,
            "email": "charles.morris@reqres.in",
            "first_name": "Charles",
            "last_name": "Morris",
            "avatar": "https://reqres.in/img/faces/5-image.jpg"
        },
        {
            "id": 6,
            "email": "tracey.ramos@reqres.in",
            "first_name": "Tracey",
            "last_name": "Ramos",
            "avatar": "https://reqres.in/img/faces/6-image.jpg"
        }
    ],
    "support": {
        "url": "https://reqres.in/#support-heading",
        "text": "To keep ReqRes free, contributions towards server costs are appreciated!"
    }
}]]>
  </system-out>
  <testcase classname="testng.Assignment4" name="validateUnsuccessfullPostRegister" time="0.468"/>
  <system-out>
    <![CDATA[PostRegister status code: 400
PostRegister response body: {
    "error": "Missing email or username"
}]]>
  </system-out>
  <testcase classname="testng.Assignment4" name="validateGetUnknownUser" time="0.483"/>
  <system-out>
    <![CDATA[GetUnknown status code: 404
GetUnknown response body: {
    
}]]>
  </system-out>
  <testcase classname="testng.Assignment4" name="validatePutUser" time="0.420"/>
  <system-out>
    <![CDATA[GetUser with id=2 status code: 200
GetUser with id=2 response body: {
    "name": "Esteban Alexis",
    "job": "Junior QA Professional",
    "updatedAt": "2023-02-15T19:21:27.159Z"
}]]>
  </system-out>
  <testcase classname="testng.Assignment4" name="validatePostCreateUser" time="0.430"/>
  <system-out>
    <![CDATA[PostCreateUsers status code: 201
PostCreateUsers response body: {
    "name": "Esteban Alexis",
    "job": "Junior QA Professional",
    "id": "250",
    "createdAt": "2023-02-15T19:21:26.269Z"
}]]>
  </system-out>
</testsuite> <!-- testng.Assignment4 -->
